{
    "TOKEN" : "",
    "bot_author": "",
    "server_owner": "",

    "Welcome_Channel" : "",
    "Leave_Channel": "",

    "Hour_Channel": "",

    "time": ["0000","0100","0200","0300","0400","0500","0600","0700","0800","0900","1000","1100","1200","1300","1400","1500","1600","1700","1800","1900","2000","2100","2200","2300"],

    "Binance_Price_API": "https://api.binance.com/api/v3/ticker/price?symbol=",

    "吃什麼": ["炒飯", "炒麵", "義大利麵", "炸雞", "鹽酥雞", "大便", "鍋貼", "水餃", "拉麵", "擔仔麵", "麵包", "土", "墨西哥餅", "燕麥", "粥", "雞肉飯",
                "冬粉", "米粉", "便當", "牛肉麵", "鐵板燒", "披薩"],
    
    "momo_emoji": "<:__:964919162638069800>",

    "en_keyword":
    [
        "ac",
        "gm",
        "gn",
        "GG",
        "q8i",
        "HHO",
        "dddd",
        "airdrop",
        "momobot",
        "first time"
    ],

    "關鍵字": 
    [
    "啪",
    "呵",
    "分",
    "舔",
    "三小",
    "沒了",
    "好耶",
    "家人",
    "主力",
    "哭阿",
    "起床",
    "還錢",
    "賺錢",
    "賠錢",
    "跑步",
    "芋頭",
    "退休",
    "空投",
    "許願",
    "拎啦",
    "一點點",
    "不知道",
    "我沒有",
    "凡爾賽",
    "三色豆",
    "iota質押"
    ],

    "keyword_pic_path": ""
}
